Mini-Project#01 – STA 9750 Submission Material
…
Warning in left_join(get_top_list, get_non_top_list, join_by(show_title == : Detected an unexpected many-to-many relationship between `x` and `y`.
ℹ Row 2 of `x` matches multiple rows in `y`.
ℹ Row 1 of `y` matches multiple rows in `x`.
ℹ If a many-to-many relationship is expected, set `relationship =
  "many-to-many"` to silence this warning.

Code

 # datatable(options=list(searching=FALSE, info=FALSE))   
result_list

# A tibble: 101 × 15
   country_name.x country_iso2.x week.x     category.x weekly_rank.x show_title 
   <chr>          <chr>          <date>     <chr>              <dbl> <chr>      
 1 United States  US             2025-09-14 Films                  1 KPop Demon…
 2 United States  US             2025-09-14 Films                  1 KPop Demon…
 3 United States  US             2025-09-14 Films                  1 KPop Demon…
 4 United States  US             2025-09-14 Films                  1 KPop Demon…
 5 United States  US             2025-09-14 Films                  1 KPop Demon…
 6 United States  US             2025-09-14 Films                  1 KPop Demon…
 7 United States  US             2025-09-14 Films                  1 KPop Demon…
 8 United States  US             2025-09-14 Films                  1 KPop Demon…
 9 United States  US             2025-09-07 Films                  1 Unknown Nu…
10 United States  US             2025-08-31 Films                  1 KPop Demon…
# ℹ 91 more rows
# ℹ 9 more variables: season_title.x <chr>, cumulative_weeks_in_top_10.x <dbl>,
#   country_name.y <chr>, country_iso2.y <chr>, week.y <date>,
#   category.y <chr>, weekly_rank.y <dbl>, season_title.y <chr>,
#   cumulative_weeks_in_top_10.y <dbl>
…
Conclusion, with the above, we believe the coming season release of stranger things will drive viewership as well as increase viewership of previous seasons as well.

Press Release 1: Commercial Success in India

#get list of Hindi-language films and TV
#get the list of top shows viewed in India 
#get the list of top shows viewed in US
#exclude the popular US shows from popular India shows

india_shows <- COUNTRY_TOP_10 |>
  filter(country_name == "India")

india_shows

# A tibble: 4,420 × 8
   country_name country_iso2 week       category weekly_rank show_title        
   <chr>        <chr>        <date>     <chr>          <dbl> <chr>             
 1 India        IN           2025-09-21 Films              1 Saiyaara          
 2 India        IN           2025-09-21 Films              2 Mahavatar Narsimha
 3 India        IN           2025-09-21 Films              3 Inspector Zende   
 4 India        IN           2025-09-21 Films              4 Materialists      
 5 India        IN           2025-09-21 Films              5 Kingdom           
 6 India        IN           2025-09-21 Films              6 Metro... In Dino  
 7 India        IN           2025-09-21 Films              7 Maareesan         
 8 India        IN           2025-09-21 Films              8 Tehran            
 9 India        IN           2025-09-21 Films              9 Maa               
10 India        IN           2025-09-21 Films             10 The Wrong Paris   
# ℹ 4,410 more rows
# ℹ 2 more variables: season_title <chr>, cumulative_weeks_in_top_10 <dbl>

us_shows <- COUNTRY_TOP_10 |>
  filter(country_name == "United States")
us_shows

# A tibble: 4,420 × 8
   country_name  country_iso2 week       category weekly_rank show_title        
   <chr>         <chr>        <date>     <chr>          <dbl> <chr>             
 1 United States US           2025-09-21 Films              1 Ice Road: Vengean…
 2 United States US           2025-09-21 Films              2 KPop Demon Hunters
 3 United States US           2025-09-21 Films              3 The Wrong Paris   
 4 United States US           2025-09-21 Films              4 aka Charlie Sheen 
 5 United States US           2025-09-21 Films              5 Terror Comes Knoc…
 6 United States US           2025-09-21 Films              6 Moving On         
 7 United States US           2025-09-21 Films              7 28 Years Later    
 8 United States US           2025-09-21 Films              8 Unknown Number: T…
 9 United States US           2025-09-21 Films              9 Shrek             
10 United States US           2025-09-21 Films             10 Shrek 2           
# ℹ 4,410 more rows
# ℹ 2 more variables: season_title <chr>, cumulative_weeks_in_top_10 <dbl>
…
