Mini-Project#02 – STA 9750 Submission Material
…
WAGES_GEOID_NAME

# A tibble: 4,435,154 × 10
# Groups:   GEOID [403]
   GEOID NAME         state std_cbsa  YEAR FIPS  INDUSTRY EMPLOYMENT TOTAL_WAGES
   <dbl> <chr>        <chr> <chr>    <dbl> <chr>    <dbl>      <dbl>       <dbl>
 1 10180 Abilene, TX… TX    C10180    2009 C1018      101       8050   342280951
 2 10180 Abilene, TX… TX    C10180    2009 C1018     1011       1769    86660038
 3 10180 Abilene, TX… TX    C10180    2009 C1018     1012       3328   151822573
 4 10180 Abilene, TX… TX    C10180    2009 C1018     1013       2952   103798340
 5 10180 Abilene, TX… TX    C10180    2009 C1018      102      42334  1284997543
 6 10180 Abilene, TX… TX    C10180    2009 C1018     1021      11993   368955371
 7 10180 Abilene, TX… TX    C10180    2009 C1018     1022          0           0
 8 10180 Abilene, TX… TX    C10180    2009 C1018     1023       3575   138206437
 9 10180 Abilene, TX… TX    C10180    2009 C1018     1024       4697   149886226
10 10180 Abilene, TX… TX    C10180    2009 C1018     1025      11950   452254692
# ℹ 4,435,144 more rows
# ℹ 1 more variable: AVG_WAGE <dbl>
…
