Mini-Project#04 – STA 9750 Submission Material
…
Warning: There were 3 warnings in `mutate()`.
The first warning was:
ℹ In argument: `month = as.integer(str_remove(Period, "M"))`.
Caused by warning:
! NAs introduced by coercion
ℹ Run `dplyr::last_dplyr_warnings()` to see the 2 remaining warnings.

# ---- inspect transformed data ----
nonfarm_employment_data

# A tibble: 559 × 2
   date       level
   <date>     <dbl>
 1 1979-01-01 88808
 2 1979-02-01 89055
 3 1979-03-01 89479
 4 1979-04-01 89417
 5 1979-05-01 89789
 6 1979-06-01 90108
 7 1979-07-01 90217
 8 1979-08-01 90300
 9 1979-09-01 90327
10 1979-10-01 90481
# ℹ 549 more rows
…
